{
  "problem_header_list": [
    {
      "problem_id": 1,
      "problem_name": "Welcome to Java",
      "problem_level": 1,
      "problem_description": "Basics of Input/Output"
    },{
      "problem_id": 2,
      "problem_name": "Sum of two numbers",
      "problem_level": 1,
      "problem_description": "Basics of Operators"
    },{
      "problem_id": 3,
      "problem_name": "Divide two numbers",
      "problem_level": 1,
      "problem_description": "Basics of Operators"
    },{
      "problem_id": 4,
      "problem_name": "Check equality of numbers",
      "problem_level": 1,
      "problem_description": "Conditional expressions"
    },{
      "problem_id": 5,
      "problem_name": "Show the greatest number",
      "problem_level": 1,
      "problem_description": "Conditional expressions"
    },{
      "problem_id": 6,
      "problem_name": "The largest element",
      "problem_level": 1,
      "problem_description": "Conditional expressions"
    },{
      "problem_id": 7,
      "problem_name": "Positive or negative?",
      "problem_level": 1,
      "problem_description": "Conditional expressions"
    },{
      "problem_id": 8,
      "problem_name": "Find day in week",
      "problem_level": 1,
      "problem_description": "Conditional expressions"
    },{
      "problem_id": 9,
      "problem_name": "Find the smallest",
      "problem_level": 1,
      "problem_description": "Conditional expressions"
    },{
      "problem_id": 10,
      "problem_name": "Even or odd?",
      "problem_level": 1,
      "problem_description": "Conditional expressions"
    },{
      "problem_id": 11,
      "problem_name": "Uppercase or lowercase?",
      "problem_level": 1,
      "problem_description": "Conditional expressions"
    },{
      "problem_id": 12,
      "problem_name": "Char of String",
      "problem_level": 1,
      "problem_description": "Conditional expressions"
    },{
      "problem_id": 13,
      "problem_name": "Compare strings",
      "problem_level": 1,
      "problem_description": "Practise printing3"
    },{
      "problem_id": 14,
      "problem_name": "Chain words!",
      "problem_level": 1,
      "problem_description": "Practising strings"
    },{
      "problem_id": 15,
      "problem_name": "Does it hold string?",
      "problem_level": 1,
      "problem_description": "Practising strings"
    },{
      "problem_id": 16,
      "problem_name": "Replace characters",
      "problem_level": 1,
      "problem_description": "Practising strings"
    },{
      "problem_id": 17,
      "problem_name": "Find Length",
      "problem_level": 1,
      "problem_description": "Practising strings"
    },{
      "problem_id": 18,
      "problem_name": "Find string in string",
      "problem_level": 1,
      "problem_description": "Practising strings"
    },{
      "problem_id": 19,
      "problem_name": "What Day is it Today?",
      "problem_level": 1,
      "problem_description": "Date and time"
    },{
      "problem_id": 20,
      "problem_name": "Days in a year",
      "problem_level": 1,
      "problem_description": "Date and time"
    },{
      "problem_id": 21,
      "problem_name": "Cnvert unix",
      "problem_level": 2,
      "problem_description": "Date and time"
    },{
      "problem_id": 22,
      "problem_name": "Last date in month",
      "problem_level": 2,
      "problem_description": "Date and time"
    },{
      "problem_id": 23,
      "problem_name": "Calculate hours",
      "problem_level": 2,
      "problem_description": "Date and time"
    }
  ,{
      "problem_id": 24,
      "problem_name": "Calculate hours",
      "problem_level": 2,
      "problem_description": "Date and time"
    }
  ]
}
